<svg width="24" height="15" viewBox="0 0 24 15" fill="none" xmlns="http://www.w3.org/2000/svg">
<path d="M0 7.5H21.9429M16.3714 1L22.5 7.5L16.3714 14" stroke="url(#paint0_linear)" stroke-width="2"/>
<defs>
<linearGradient id="paint0_linear" x1="-16.5" y1="14" x2="22.5" y2="14" gradientUnits="userSpaceOnUse">
<stop stop-color="#02579A"/>
<stop offset="1" stop-color="#0EE8F4"/>
</linearGradient>
</defs>
</svg>
