<svg width="192" height="25" viewBox="0 0 192 25" fill="none" xmlns="http://www.w3.org/2000/svg">
	<rect y="-3" width="192" height="35" fill="url(#paint0_linear)"/>
	<defs>
	<linearGradient id="paint0_linear" x1="8.29696e-07" y1="18" x2="192" y2="18" gradientUnits="userSpaceOnUse">
	<stop stop-color="#02579A"/>
	<stop offset="1" stop-color="#0EE8F4"/>
	</linearGradient>
	</defs>
</svg>
